<?xml version="1.0" encoding="UTF-8" standalone="no"?>
<svg
   xmlns:dc="http://purl.org/dc/elements/1.1/"
   xmlns:cc="http://creativecommons.org/ns#"
   xmlns:rdf="http://www.w3.org/1999/02/22-rdf-syntax-ns#"
   xmlns:svg="http://www.w3.org/2000/svg"
   xmlns="http://www.w3.org/2000/svg"
   xmlns:xlink="http://www.w3.org/1999/xlink"
   xmlns:sodipodi="http://sodipodi.sourceforge.net/DTD/sodipodi-0.dtd"
   xmlns:inkscape="http://www.inkscape.org/namespaces/inkscape"
   sodipodi:docname="Zeichnung.svg"
   inkscape:version="1.1-dev (36e1d04, 2020-03-13)"
   id="svg8"
   version="1.1"
   viewBox="0 0 5.8223958 13.1682"
   height="13.1682mm"
   width="5.8223958mm">
  <defs
     id="defs2">
    <linearGradient
       id="linearGradient21"
       inkscape:collect="always">
      <stop
         id="stop17"
         offset="0"
         style="stop-color:#ff0000;stop-opacity:1" />
      <stop
         style="stop-color:#ff7f7f;stop-opacity:1;"
         offset="0.23026027"
         id="stop25" />
      <stop
         id="stop19"
         offset="1"
         style="stop-color:#ffffff;stop-opacity:1" />
    </linearGradient>
    <radialGradient
       gradientUnits="userSpaceOnUse"
       gradientTransform="matrix(-0.006381,-0.81696804,0.8291858,-0.00648081,-76.480963,140.32701)"
       r="10.813976"
       fy="137.26768"
       fx="124.41095"
       cy="137.26768"
       cx="124.41095"
       id="radialGradient23"
       xlink:href="#linearGradient21"
       inkscape:collect="always" />
  </defs>
  <sodipodi:namedview
     fit-margin-bottom="0"
     fit-margin-right="0"
     fit-margin-left="0"
     fit-margin-top="0"
     inkscape:window-maximized="1"
     inkscape:window-y="-12"
     inkscape:window-x="-12"
     inkscape:window-height="1714"
     inkscape:window-width="2736"
     showgrid="false"
     inkscape:current-layer="layer1"
     inkscape:document-units="mm"
     inkscape:cy="32.669873"
     inkscape:cx="4.4944755"
     inkscape:zoom="11.2"
     inkscape:pageshadow="2"
     inkscape:pageopacity="0.0"
     borderopacity="1.0"
     bordercolor="#666666"
     pagecolor="#ffffff"
     id="base" />
  <metadata
     id="metadata5">
    <rdf:RDF>
      <cc:Work
         rdf:about="">
        <dc:format>image/svg+xml</dc:format>
        <dc:type
           rdf:resource="http://purl.org/dc/dcmitype/StillImage" />
        <dc:title></dc:title>
      </cc:Work>
    </rdf:RDF>
  </metadata>
  <g
     transform="translate(-33.634597,-27.51692)"
     id="layer1"
     inkscape:groupmode="layer"
     inkscape:label="Ebene 1">
    <path
       d="m 36.498252,27.61692 c -0.693634,0 -1.252119,0.558485 -1.252119,1.252119 v 6.42648 a 2.8111979,2.8111979 0 0 0 -1.511536,2.478403 2.8111979,2.8111979 0 0 0 2.811198,2.811198 2.8111979,2.8111979 0 0 0 2.811198,-2.811198 2.8111979,2.8111979 0 0 0 -1.512054,-2.489772 v -6.415111 c 0,-0.693634 -0.558485,-1.252119 -1.252119,-1.252119 z"
       style="fill:url(#radialGradient23);fill-opacity:1;stroke:#000000;stroke-width:0.2;stroke-miterlimit:4;stroke-dasharray:none;stop-color:#000000"
       id="rect10" />
    <path
       id="path27"
       d="M 37.821242,33.261905 H 36.356585"
       style="fill:none;stroke:#000000;stroke-width:0.264583px;stroke-linecap:butt;stroke-linejoin:miter;stroke-opacity:1" />
    <path
       style="fill:none;stroke:#000000;stroke-width:0.264583px;stroke-linecap:butt;stroke-linejoin:miter;stroke-opacity:1"
       d="M 37.821242,31.183037 H 36.356585"
       id="path27-1" />
    <path
       style="fill:none;stroke:#000000;stroke-width:0.264583px;stroke-linecap:butt;stroke-linejoin:miter;stroke-opacity:1"
       d="M 37.821242,30.143601 H 36.356585"
       id="path27-3" />
    <path
       style="fill:none;stroke:#000000;stroke-width:0.264583px;stroke-linecap:butt;stroke-linejoin:miter;stroke-opacity:1"
       d="M 37.821242,32.222469 H 36.356585"
       id="path27-0" />
  </g>
</svg>
